-- Merging decision tree log ---
manifest
ADDED from /home/matias/AndroidStudioProjects/BouncingBullets/android/AndroidManifest.xml:2:1-41:12
INJECTED from /home/matias/AndroidStudioProjects/BouncingBullets/android/AndroidManifest.xml:2:1-41:12
INJECTED from /home/matias/AndroidStudioProjects/BouncingBullets/android/AndroidManifest.xml:2:1-41:12
INJECTED from /home/matias/AndroidStudioProjects/BouncingBullets/android/AndroidManifest.xml:2:1-41:12
MERGED from [com.android.support:support-compat:28.0.0] /home/matias/.gradle/caches/transforms-2/files-2.1/25fbf599fb3d23b598d5a097c51546e1/support-compat-28.0.0/AndroidManifest.xml:17:1-24:12
MERGED from [com.android.support:versionedparcelable:28.0.0] /home/matias/.gradle/caches/transforms-2/files-2.1/acc4bbc466ef6d41fbe3e830f83fe2fe/versionedparcelable-28.0.0/AndroidManifest.xml:17:1-25:12
MERGED from [android.arch.lifecycle:runtime:1.1.1] /home/matias/.gradle/caches/transforms-2/files-2.1/64a98eb530829c58db8fce10d57ca7e2/runtime-1.1.1/AndroidManifest.xml:17:1-22:12
INJECTED from /home/matias/AndroidStudioProjects/BouncingBullets/android/AndroidManifest.xml:2:1-41:12
INJECTED from /home/matias/AndroidStudioProjects/BouncingBullets/android/AndroidManifest.xml:2:1-41:12
INJECTED from /home/matias/AndroidStudioProjects/BouncingBullets/android/AndroidManifest.xml:2:1-41:12
	package
		ADDED from /home/matias/AndroidStudioProjects/BouncingBullets/android/AndroidManifest.xml:3:5-41
		INJECTED from /home/matias/AndroidStudioProjects/BouncingBullets/android/AndroidManifest.xml
		INJECTED from /home/matias/AndroidStudioProjects/BouncingBullets/android/AndroidManifest.xml
	android:versionName
		INJECTED from /home/matias/AndroidStudioProjects/BouncingBullets/android/AndroidManifest.xml
		ADDED from /home/matias/AndroidStudioProjects/BouncingBullets/android/AndroidManifest.xml:2:1-41:12
		INJECTED from /home/matias/AndroidStudioProjects/BouncingBullets/android/AndroidManifest.xml
	android:versionCode
		INJECTED from /home/matias/AndroidStudioProjects/BouncingBullets/android/AndroidManifest.xml
		ADDED from /home/matias/AndroidStudioProjects/BouncingBullets/android/AndroidManifest.xml:2:1-41:12
		INJECTED from /home/matias/AndroidStudioProjects/BouncingBullets/android/AndroidManifest.xml
	xmlns:android
		ADDED from /home/matias/AndroidStudioProjects/BouncingBullets/android/AndroidManifest.xml:2:11-69
uses-permission#android.permission.CAMERA
ADDED from /home/matias/AndroidStudioProjects/BouncingBullets/android/AndroidManifest.xml:5:5-64
	android:name
		ADDED from /home/matias/AndroidStudioProjects/BouncingBullets/android/AndroidManifest.xml:5:22-62
uses-permission#android.permission.VIBRATE
ADDED from /home/matias/AndroidStudioProjects/BouncingBullets/android/AndroidManifest.xml:6:5-65
	android:name
		ADDED from /home/matias/AndroidStudioProjects/BouncingBullets/android/AndroidManifest.xml:6:22-63
uses-permission#android.permission.WRITE_EXTERNAL_STORAGE
ADDED from /home/matias/AndroidStudioProjects/BouncingBullets/android/AndroidManifest.xml:7:5-80
	android:name
		ADDED from /home/matias/AndroidStudioProjects/BouncingBullets/android/AndroidManifest.xml:7:22-78
uses-permission#android.permission.READ_EXTERNAL_STORAGE
ADDED from /home/matias/AndroidStudioProjects/BouncingBullets/android/AndroidManifest.xml:8:5-79
	android:name
		ADDED from /home/matias/AndroidStudioProjects/BouncingBullets/android/AndroidManifest.xml:8:22-77
uses-permission#android.permission.WAKE_LOCK
ADDED from /home/matias/AndroidStudioProjects/BouncingBullets/android/AndroidManifest.xml:9:5-67
	android:name
		ADDED from /home/matias/AndroidStudioProjects/BouncingBullets/android/AndroidManifest.xml:9:22-65
uses-feature#android.hardware.camera
ADDED from /home/matias/AndroidStudioProjects/BouncingBullets/android/AndroidManifest.xml:10:5-85
	android:required
		ADDED from /home/matias/AndroidStudioProjects/BouncingBullets/android/AndroidManifest.xml:10:58-82
	android:name
		ADDED from /home/matias/AndroidStudioProjects/BouncingBullets/android/AndroidManifest.xml:10:19-57
application
ADDED from /home/matias/AndroidStudioProjects/BouncingBullets/android/AndroidManifest.xml:12:5-39:19
MERGED from [com.android.support:support-compat:28.0.0] /home/matias/.gradle/caches/transforms-2/files-2.1/25fbf599fb3d23b598d5a097c51546e1/support-compat-28.0.0/AndroidManifest.xml:22:5-94
MERGED from [com.android.support:support-compat:28.0.0] /home/matias/.gradle/caches/transforms-2/files-2.1/25fbf599fb3d23b598d5a097c51546e1/support-compat-28.0.0/AndroidManifest.xml:22:5-94
MERGED from [com.android.support:versionedparcelable:28.0.0] /home/matias/.gradle/caches/transforms-2/files-2.1/acc4bbc466ef6d41fbe3e830f83fe2fe/versionedparcelable-28.0.0/AndroidManifest.xml:22:5-23:19
MERGED from [com.android.support:versionedparcelable:28.0.0] /home/matias/.gradle/caches/transforms-2/files-2.1/acc4bbc466ef6d41fbe3e830f83fe2fe/versionedparcelable-28.0.0/AndroidManifest.xml:22:5-23:19
	android:appComponentFactory
		ADDED from [com.android.support:support-compat:28.0.0] /home/matias/.gradle/caches/transforms-2/files-2.1/25fbf599fb3d23b598d5a097c51546e1/support-compat-28.0.0/AndroidManifest.xml:22:18-91
	android:label
		ADDED from /home/matias/AndroidStudioProjects/BouncingBullets/android/AndroidManifest.xml:17:9-41
	android:appCategory
		ADDED from /home/matias/AndroidStudioProjects/BouncingBullets/android/AndroidManifest.xml:16:9-35
	android:icon
		ADDED from /home/matias/AndroidStudioProjects/BouncingBullets/android/AndroidManifest.xml:14:9-39
	android:allowBackup
		ADDED from /home/matias/AndroidStudioProjects/BouncingBullets/android/AndroidManifest.xml:13:9-35
	android:theme
		ADDED from /home/matias/AndroidStudioProjects/BouncingBullets/android/AndroidManifest.xml:18:9-40
	android:isGame
		ADDED from /home/matias/AndroidStudioProjects/BouncingBullets/android/AndroidManifest.xml:15:9-30
activity#com.matias.bouncingbullets.AndroidLauncher
ADDED from /home/matias/AndroidStudioProjects/BouncingBullets/android/AndroidManifest.xml:19:9-28:20
	android:screenOrientation
		ADDED from /home/matias/AndroidStudioProjects/BouncingBullets/android/AndroidManifest.xml:22:13-50
	android:label
		ADDED from /home/matias/AndroidStudioProjects/BouncingBullets/android/AndroidManifest.xml:21:13-45
	android:configChanges
		ADDED from /home/matias/AndroidStudioProjects/BouncingBullets/android/AndroidManifest.xml:23:13-107
	android:name
		ADDED from /home/matias/AndroidStudioProjects/BouncingBullets/android/AndroidManifest.xml:20:13-70
intent-filter#action:name:android.intent.action.MAIN+category:name:android.intent.category.LAUNCHER
ADDED from /home/matias/AndroidStudioProjects/BouncingBullets/android/AndroidManifest.xml:24:13-27:29
action#android.intent.action.MAIN
ADDED from /home/matias/AndroidStudioProjects/BouncingBullets/android/AndroidManifest.xml:25:17-69
	android:name
		ADDED from /home/matias/AndroidStudioProjects/BouncingBullets/android/AndroidManifest.xml:25:25-66
category#android.intent.category.LAUNCHER
ADDED from /home/matias/AndroidStudioProjects/BouncingBullets/android/AndroidManifest.xml:26:17-77
	android:name
		ADDED from /home/matias/AndroidStudioProjects/BouncingBullets/android/AndroidManifest.xml:26:27-74
activity#com.matias.bouncingbullets.CamaraAndroid
ADDED from /home/matias/AndroidStudioProjects/BouncingBullets/android/AndroidManifest.xml:30:9-76
	android:name
		ADDED from /home/matias/AndroidStudioProjects/BouncingBullets/android/AndroidManifest.xml:30:19-74
provider#android.support.v4.content.FileProvider
ADDED from /home/matias/AndroidStudioProjects/BouncingBullets/android/AndroidManifest.xml:32:9-37:20
	android:grantUriPermissions
		ADDED from /home/matias/AndroidStudioProjects/BouncingBullets/android/AndroidManifest.xml:35:19-53
	android:authorities
		ADDED from /home/matias/AndroidStudioProjects/BouncingBullets/android/AndroidManifest.xml:32:19-80
	android:exported
		ADDED from /home/matias/AndroidStudioProjects/BouncingBullets/android/AndroidManifest.xml:34:19-43
	android:name
		ADDED from /home/matias/AndroidStudioProjects/BouncingBullets/android/AndroidManifest.xml:33:19-73
meta-data#android.support.FILE_PROVIDER_PATHS
ADDED from /home/matias/AndroidStudioProjects/BouncingBullets/android/AndroidManifest.xml:36:13-113
	android:resource
		ADDED from /home/matias/AndroidStudioProjects/BouncingBullets/android/AndroidManifest.xml:36:75-111
	android:name
		ADDED from /home/matias/AndroidStudioProjects/BouncingBullets/android/AndroidManifest.xml:36:24-74
uses-sdk
INJECTED from /home/matias/AndroidStudioProjects/BouncingBullets/android/AndroidManifest.xml reason: use-sdk injection requested
INJECTED from /home/matias/AndroidStudioProjects/BouncingBullets/android/AndroidManifest.xml
INJECTED from /home/matias/AndroidStudioProjects/BouncingBullets/android/AndroidManifest.xml
MERGED from [com.android.support:support-compat:28.0.0] /home/matias/.gradle/caches/transforms-2/files-2.1/25fbf599fb3d23b598d5a097c51546e1/support-compat-28.0.0/AndroidManifest.xml:20:5-44
MERGED from [com.android.support:support-compat:28.0.0] /home/matias/.gradle/caches/transforms-2/files-2.1/25fbf599fb3d23b598d5a097c51546e1/support-compat-28.0.0/AndroidManifest.xml:20:5-44
MERGED from [com.android.support:versionedparcelable:28.0.0] /home/matias/.gradle/caches/transforms-2/files-2.1/acc4bbc466ef6d41fbe3e830f83fe2fe/versionedparcelable-28.0.0/AndroidManifest.xml:20:5-44
MERGED from [com.android.support:versionedparcelable:28.0.0] /home/matias/.gradle/caches/transforms-2/files-2.1/acc4bbc466ef6d41fbe3e830f83fe2fe/versionedparcelable-28.0.0/AndroidManifest.xml:20:5-44
MERGED from [android.arch.lifecycle:runtime:1.1.1] /home/matias/.gradle/caches/transforms-2/files-2.1/64a98eb530829c58db8fce10d57ca7e2/runtime-1.1.1/AndroidManifest.xml:20:5-44
MERGED from [android.arch.lifecycle:runtime:1.1.1] /home/matias/.gradle/caches/transforms-2/files-2.1/64a98eb530829c58db8fce10d57ca7e2/runtime-1.1.1/AndroidManifest.xml:20:5-44
INJECTED from /home/matias/AndroidStudioProjects/BouncingBullets/android/AndroidManifest.xml
INJECTED from /home/matias/AndroidStudioProjects/BouncingBullets/android/AndroidManifest.xml
	android:targetSdkVersion
		INJECTED from /home/matias/AndroidStudioProjects/BouncingBullets/android/AndroidManifest.xml
		ADDED from /home/matias/AndroidStudioProjects/BouncingBullets/android/AndroidManifest.xml
		INJECTED from /home/matias/AndroidStudioProjects/BouncingBullets/android/AndroidManifest.xml
	android:minSdkVersion
		INJECTED from /home/matias/AndroidStudioProjects/BouncingBullets/android/AndroidManifest.xml
		ADDED from /home/matias/AndroidStudioProjects/BouncingBullets/android/AndroidManifest.xml
		INJECTED from /home/matias/AndroidStudioProjects/BouncingBullets/android/AndroidManifest.xml
