{
	"nombre": "Mapa 2",
	"dificultad":"baja",
	"maxBalas": 3,
	"R":0.2,
	"G":0.7,
	"B":0.15,
	"jugadorSpawn": {
		"class":"com.badlogic.gdx.math.Vector2",
		"x":18.4,
		"y":8.3
	},
	"powerUpSpawnPoints":
	[{
		"class":"com.badlogic.gdx.math.Vector2",
		"x":1,
		"y":1
	},
		{
			"class":"com.badlogic.gdx.math.Vector2",
			"x":32.8,
			"y":15
		}
	],
	"balasSpawn":
	[
		{
			"class":"com.badlogic.gdx.math.Vector2",
			"x":5,
			"y":10
		}
	]
	,
	"rocas": [
		{
			"class": "com.badlogic.gdx.math.Vector2",
			"x": 18.4,
			"y": 1
		},
		{
			"class": "com.badlogic.gdx.math.Vector2",
			"x": 28,
			"y": 15
		},
		{
			"class": "com.badlogic.gdx.math.Vector2",
			"x": 23,
			"y": 7
		},
		{
			"class": "com.badlogic.gdx.math.Vector2",
			"x": 18,
			"y": 5
		},
		{
			"class": "com.badlogic.gdx.math.Vector2",
			"x": 1,
			"y": 7.4
		},
		{
			"class": "com.badlogic.gdx.math.Vector2",
			"x": 25,
			"y": 12
		},
		{
			"class": "com.badlogic.gdx.math.Vector2",
			"x": 1,
			"y": 8.4
		},
		{
			"class": "com.badlogic.gdx.math.Vector2",
			"x": 3,
			"y": 8.4
		},
		{
			"class": "com.badlogic.gdx.math.Vector2",
			"x": 3,
			"y": 7.4
		}
	]
}
